{
  "additionalProperties": false,
  "title": "UserSchema",
  "type": "object",
  "properties": {
    "names": {
      "type": "string"
    },
    "lastnames": {
      "type": "string"
    },
    "email": {
      "type": "string"
    },
    "password": {
      "type": "string"
    },
    "created_at": {
      "type": "number"
    },
    "private_id": {
      "type": "number"
    },
    "public_id": {
      "type": "number"
    },
    "updated_at": {
      "type": "number"
    }
  },
  "required": ["names", "lastnames", "email", "password"]
}
